^C:\USERS\משתמש\L6-BAR\EX6\Q2\DEBUG\CIRCLE.OBJ|C:\USERS\משתמש\L6-BAR\EX6\Q2\DEBUG\HEXAGON.OBJ|C:\USERS\משתמש\L6-BAR\EX6\Q2\DEBUG\INPUT2EXCEPTION.OBJ|C:\USERS\משתמש\L6-BAR\EX6\Q2\DEBUG\INPUTEXCEPTION.OBJ|C:\USERS\משתמש\L6-BAR\EX6\Q2\DEBUG\MATHUTILS.OBJ|C:\USERS\משתמש\L6-BAR\EX6\Q2\DEBUG\PARALLELOGRAM.OBJ|C:\USERS\משתמש\L6-BAR\EX6\Q2\DEBUG\PENTAGON.OBJ|C:\USERS\משתמש\L6-BAR\EX6\Q2\DEBUG\Q2.OBJ|C:\USERS\משתמש\L6-BAR\EX6\Q2\DEBUG\QUADRILATERAL.OBJ|C:\USERS\משתמש\L6-BAR\EX6\Q2\DEBUG\RECTANGLE.OBJ|C:\USERS\משתמש\L6-BAR\EX6\Q2\DEBUG\SHAPE.OBJ|C:\USERS\משתמש\L6-BAR\EX6\Q2\DEBUG\SHAPEEXEPTION.OBJ
/OUT:"C:\USERS\משתמש\L6-BAR\EX6\EX6\DEBUG\Q2.EXE" /INCREMENTAL /NOLOGO KERNEL32.LIB USER32.LIB GDI32.LIB WINSPOOL.LIB COMDLG32.LIB ADVAPI32.LIB SHELL32.LIB OLE32.LIB OLEAUT32.LIB UUID.LIB ODBC32.LIB ODBCCP32.LIB /MANIFEST /MANIFESTUAC:"level='asInvoker' uiAccess='false'" /manifest:embed /DEBUG:FASTLINK /PDB:"C:\USERS\משתמש\L6-BAR\EX6\EX6\DEBUG\Q2.PDB" /SUBSYSTEM:CONSOLE /TLBID:1 /DYNAMICBASE /NXCOMPAT /IMPLIB:"C:\USERS\משתמש\L6-BAR\EX6\EX6\DEBUG\Q2.LIB" /MACHINE:X86 DEBUG\CIRCLE.OBJ
DEBUG\HEXAGON.OBJ
DEBUG\INPUT2EXCEPTION.OBJ
DEBUG\INPUTEXCEPTION.OBJ
DEBUG\MATHUTILS.OBJ
DEBUG\PARALLELOGRAM.OBJ
DEBUG\PENTAGON.OBJ
DEBUG\Q2.OBJ
DEBUG\QUADRILATERAL.OBJ
DEBUG\RECTANGLE.OBJ
DEBUG\SHAPE.OBJ
DEBUG\SHAPEEXEPTION.OBJ
